Lab 01
…
Individual values within data frames can be accessed by specifying its row and column number in square brackets, [ ]. The 1st number is the row number and the 2nd number specifies the column number. For example, to access the third value in the SO4 data we would use:

water[3,1]

# A tibble: 1 × 1
    SO4
  <dbl>
1  56.5

In this example 3 represents row 3, and 1 represents column 1. Entire columns of data can be referenced by leaving the row number blank:

water[,1]

# A tibble: 39 × 1
     SO4
   <dbl>
 1  50.6
 2  55.4
 3  56.5
 4  57.5
 5  58.3
 6  63  
 7  66.5
 8  64.5
 9  63.4
10  58.4
# ℹ 29 more rows
…
